VCDanalyse/VCDanalyse2/test_clavier.vcd
$date
   Date text. For example: November 11, 2009.
$end
$version
   VCD generator tool version info text.
$end
$comment
   Any comment text.
$end
$timescale 1us $end
$scope module logic $end
$var wire 1 $ clock $end
$var wire 1 % data1 $end
$var wire 1 & data2 $end  
$upscope $end
$enddefinitions $end
$dumpvars
1$
0%
0&
$end
#0
1$
#1
0$
0%
0&
#2
1$
#3
0$
0%
0&
#4
1$
#5
0$
1%
0&
#6
1$
#7
0$
0%
1&
#8
1$
#9
0$
0%
1&
#10
1$
#11
0$
0%
0&
#12
1$
#13
0$
0%
0&
#14
1$
#15
0$
0%
0&
#16
1$
#17
0$
1%
1&
#18
1$
#19
0$
1%
1&
#20
1$
#21
0$
0%
0&
#22
1$
#23
0$
0%
0&
#24
1$
#25
0$
1%
0&
#26
1$
#27
0$
0%
1&
#28
1$
#29
0$
1%
0&
#30
1$
#31
0$
1%
1&
#32
1$
#33
0$
1%
0&
#34
1$
#35
0$
1%
1&
#36
1$
#37
0$
1%
0&
#38
1$
#39
0$
1%
1&
