build-generate_VCD-Desktop_Qt_5_4_1_MinGW_32bit-Debug/vcd_file.vcd
$comment
Generation des valeurs sortant du clavier
$end
$timescale 1us$end
$scope module logic$end
$var wire 1 # PB0 $end
$var wire 1 % PB1 $end
$var wire 1 & PB2 $end
$var wire 1 * PB3 $end
$var wire 1 ( PB4 $end
$var wire 1 ) PB5 $end
$var wire 1 [ PB6 $end
$var wire 1 ] PB7 $end
$upscope $end
$enddefinitions $end
$dumpvars
x#
x%
x&
x*
x(
x)
x[
x]
$end
#0
1#
1%
0&
0*
0(
0)
0[
0]
#20292
0#
0%
#36928
1#
#57529
0#
#75068
1#
1%
#95585
0#
0%
#112030
1#
1%
#131878
1&
#148066
0#
0%
#168028
1#
1%
#183797
0#
0%
#199527
1#
1%
#221361
0#
#236264
1#
#256722
0#
0%
#272910
1#
1%
#293335
0&
#309693
0#
0%
#330051
1#
1%
#346193
0#
0%
#367041
1#
1%
#383074
1&
#404028
0#
#421258
1#
#440614
0#
0%
#457957
1#
1%
#477353
0&
#495095
0#
0%
#516123
1#
#532054
0#
#552380
1#
1%
#569231
0#
0%
#589297
1#
1%
#605942
0#
0%
#626328
1#
1%
#642483
0#
0%
#663037
1#
1%
#679196
1&
#698493
0#
#715998
1#
#735661
0#
0%
#752537
1#
1%
#772215
0#
0%
#789560
1#
1%
#805154
0#
0%
#826330
1#
1%
#842251
0#
0%
#862254
1#
1%
#878731
0#
#900058
1#
#915939
0&
#936652
0#
0%
#954433
1#
1%
#974752
0#
0%
#992497
1#
#1012949
0#
#1029089
1#
1%
#1049567
1&
#1065200
0#
0%
#1084570
1#
1%
#1100528
0#
0%
#1121113
1#
1%
#1136982
0#
0%
#1157621
1#
1%
#1173198
0#
#1193899
1#
#1210508
0&
#1230554
0#
0%
#1248416
1#
1%
#1268954
0#
0%
#1285368
1#
1%
#1306721
1&
#1321497
0#
0%
#1341927
1#
1%
#1358127
0#
#1374377
1#
