build-generate_VCD-Desktop_Qt_5_4_1_MinGW_32bit-Debug/vcd_file.vcd
$comment
Generation des valeurs sortant du clavier
$end
$timescale 1us$end
$scope module logic$end
$var wire 1 # PB0 $end
$var wire 1 % PB1 $end
$var wire 1 & PB2 $end
$var wire 1 * PB3 $end
$var wire 1 ( PB4 $end
$var wire 1 ) PB5 $end
$var wire 1 [ PB6 $end
$var wire 1 ] PB7 $end
$upscope $end
$enddefinitions $end
$dumpvars
x#
x%
x&
x*
x(
x)
x[
x]
$end
#0
1#
0%
0&
0*
0(
0)
0[
0]
#16191
0#
#36935
1#
1%
#53279
1&
#73961
0#
0%
#89198
1#
1%
#110611
0&
#129010
0#
0%
#145818
1#
1%
#161907
1&
#182534
0#
#198636
1#
#219684
0&
#237283
0#
0%
#257610
1#
1%
#274157
1&
#293902
0#
#309794
1#
#329937
0&
#347767
0#
0%
#367962
1#
1%
#383941
0#
0%
#404808
1#
1%
#421026
0#
0%
#442092
1#
1%
#457935
0#
0%
#480022
1#
#495602
1%
1&
#515081
0#
0%
#531455
1#
1%
#547181
0&
#567728
0#
0%
#584077
1#
1%
#606265
0#
0%
#622284
1#
1%
#642693
0#
0%
#658828
1#
#680709
0#
#696519
1#
1%
#717115
0#
0%
#732696
1#
1%
#752824
1&
#770128
0#
0%
#790193
1#
1%
#806278
0#
0%
#826207
1#
1%
#842686
0#
#862249
1#
#878792
0#
0%
#899411
1#
1%
#915608
0#
0%
#936302
1#
1%
#952734
0#
#973987
1#
#989625
0&
#1011241
0#
0%
#1027638
1#
1%
#1047510
1&
#1063418
0#
0%
#1083449
1#
1%
#1099862
0&
#1115934
0#
0%
#1136828
1#
#1153018
1%
1&
#1173209
0#
0%
#1190848
1#
1%
#1210053
0&
#1227059
0#
0%
#1247431
1#
1%
#1264796
1&
#1285019
0#
0%
#1301919
1#
1%
#1321321
0%
0&
#1339011
0#
#1358171
1#
1%
#1374558
0#
0%
#1395927
1#
1%
#1411854
0#
0%
#1432740
1#
1%
#1448930
0#
0%
#1470579
1#
1%
#1486599
1&
#1506185
0#
#1522783
1#
#3149753
0&
#3166274
0#
0%
#3187443
1#
#3202934
1%
1&
#3222875
0#
0%
#3238163
1#
1%
#3258398
0&
#3275342
0#
0%
#3294875
1#
#3312432
1%
1&
#3331760
0#
0%
#3349358
1#
1%
#3368562
0#
0%
#3386314
1#
1%
#3406251
0#
0%
#3422906
1#
1%
#3442738
0&
#3460052
0#
0%
#3480789
1#
#3497101
0#
#3519592
1#
1%
#3534718
0#
0%
#3555262
1#
1%
#3571612
1&
#3587604
0#
0%
#3607680
1#
1%
#3627371
0#
0%
#3643944
1#
1%
#3660574
0%
0&
#3680154
0#
#3696269
1#
1%
#3717857
0#
0%
#3733958
1#
1%
#3756084
0#
0%
#3772618
1#
1%
#3793269
0#
0%
#3808866
1#
1%
#3829384
0#
0%
#3846559
1#
#3866367
1%
1&
#3881814
0#
0%
#3902533
1#
1%
#3918770
0#
0%
#3938659
1#
1%
#3956276
0#
#3975171
1#
#3991220
0#
0%
#4011781
1#
1%
#4028720
0#
0%
#4048706
1#
1%
#4064925
0#
0%
#4085786
1#
1%
#4101790
0&
#4122849
0#
0%
#4139883
1#
#4156260
1%
1&
#4179076
0#
0%
#4193478
1#
1%
#4213906
0&
#4229292
0#
0%
#4249598
1#
1%
#4266315
1&
#4286567
0#
0%
#4303223
1#
1%
#4323070
0#
#4340589
1#
#4359820
0#
0%
#4376693
1#
1%
#4396750
0&
#4414532
0#
0%
#4435125
1#
1%
#4451132
0#
0%
#4472470
1#
1%
#4489086
0#
0%
#4509695
1#
#4525788
1%
1&
#4545599
0#
0%
#4562038
1#
1%
#4582150
0#
0%
#4597880
1#
1%
#6131611
0&
#6152238
0#
0%
#6168138
1#
#6189135
0#
#6205009
1#
1%
#6225418
0#
0%
#6242158
1#
1%
#6259113
1&
#6278371
0#
0%
#6294545
1#
1%
#6314809
0&
#6330444
0#
0%
#6350708
1#
#6367134
0#
#6388211
1#
1%
#6404947
1&
#6424419
0#
0%
#6441039
1#
1%
#6461123
0&
#6478806
0#
0%
#6499388
1#
1%
#6516134
0#
0%
#6536964
1#
#6553138
1%
1&
#6572779
0#
0%
#6589469
1#
1%
#6609750
0#
0%
#6625577
1#
1%
#6645804
0%
0&
#6662049
0#
#6683764
1#
1%
#6699596
0#
0%
#6720920
1#
1%
#6737171
0#
0%
#6758438
1#
1%
#6774707
0#
0%
#6795950
1#
1%
#6810926
0#
0%
#6827832
1#
#6848294
1%
1&
#6863822
0#
0%
#6884416
1#
1%
#6899598
0#
0%
#6920185
1#
1%
#6936256
0#
0%
#6956753
1#
1%
#6973065
0#
0%
#6993905
1#
1%
#7010959
0#
#7030839
1#
#7046734
0#
0%
#7067773
1#
1%
#7083767
0&
#7104281
0#
0%
#7120471
1#
1%
#7140954
0#
0%
#7157295
1#
1%
#7177781
0#
0%
#7194584
1#
#7215001
1%
1&
#7232899
0#
0%
#7251744
1#
1%
#7267944
0&
#7289543
0#
0%
#7305981
1#
#7328711
0#
#7344931
1#
1%
#7364144
1&
#7380255
0#
0%
#7396274
1#
1%
#7416029
0&
#7432373
0#
0%
#7452556
1#
1%
#7469960
0#
0%
#7489719
1#
#7506628
1%
1&
#7526416
0#
0%
#7543068
1#
1%
#7563898
0#
0%
#7579492
1#
1%
#8662778
0&
#8683305
0#
0%
#8699484
1#
#8715793
1%
1&
#8735745
0#
0%
#8752009
1#
1%
#8771858
0&
#8787932
0#
0%
#8808592
1#
1%
#8825541
1&
#8844865
0#
0%
#8862188
1#
1%
#8881690
0#
#8898202
1#
#8918634
0&
#8935419
0#
0%
#8955986
1#
1%
#8972202
1&
#8992714
0#
#9009582
1#
#9029124
0&
#9046842
0#
0%
#9067458
1#
1%
#9082415
0#
0%
#9104175
1#
1%
#9120739
1&
#9139852
0#
0%
#9157113
1#
1%
#9176598
0#
#9193499
1#
#9213442
0&
#9230978
0#
0%
#9250857
1#
1%
#9268758
0#
0%
#9285418
1#
1%
#9306078
0#
0%
#9322449
1#
1%
#9342725
0#
0%
#9359704
1#
#9379617
0#
#9395645
1#
1%
#9416293
1&
#9432597
0#
0%
#9452491
1#
1%
#9468579
0#
0%
#9488249
1#
1%
#9504534
0#
0%
#9525410
1#
1%
#9541198
0#
#9561757
1#
#9578518
0#
0%
#9598650
1#
1%
#9614935
0#
0%
#9636687
1#
1%
#9651784
0%
0&
#9673535
0#
#9690091
1#
1%
#9710149
1&
#9727130
0#
0%
#9750324
1#
1%
#9763831
0&
#9782956
0#
0%
#9799402
1#
1%
#9821042
1&
#9836507
0#
#9857618
1#
#9873076
0#
0%
#9889782
1#
1%
#9909793
0&
#9927525
0#
0%
#9947429
1#
1%
#9964150
1&
#9983968
0#
0%
#10000319
1#
1%
#10020416
0%
0&
#10038093
0#
#10058604
1#
1%
#10075107
0#
0%
#10095319
1#
1%
#10111631
1&
#10131117
0#
0%
#10147702
1#
1%
#10167842
0#
0%
#10185177
1#
1%
#11513834
0&
#11529758
0#
0%
#11546467
1#
1%
#11567031
0#
0%
#11582955
1#
1%
#11603873
0#
0%
#11619928
1#
#11640452
1%
1&
#11655784
0#
0%
#11676520
1#
1%
#11692687
0#
0%
#11712215
1#
1%
#11728501
0&
#11748976
0#
0%
#11765764
1#
1%
#11786025
1&
#11804605
0#
#11824420
1#
#11840255
0&
#11860396
0#
0%
#11876686
1#
1%
#11898163
0#
0%
#11914374
1#
1%
#11934720
0#
0%
#11952128
1#
1%
#11972188
1&
#11987756
0#
#12007740
1#
#12024014
0&
#12044140
0#
0%
#12060182
1#
1%
#12081557
0#
0%
#12099611
1#
#12115850
0#
#12136328
1#
1%
#12152375
0#
0%
#12172621
1#
1%
#12188502
0#
0%
#12208237
1#
1%
#12224859
1&
#12244565
0#
0%
#12261120
1#
1%
#12281399
0#
#12298091
1#
#12318217
0#
0%
#12335063
1#
1%
#12355199
0#
0%
#12373104
1#
1%
#12392267
0#
0%
#12409026
1#
1%
#12428780
0#
0%
#12446478
1#
1%
#12465656
0%
0&
#12483367
0#
#12503816
1#
1%
#12520455
0#
0%
#12540829
1#
1%
#12556989
0#
0%
#12577527
1#
1%
#12595256
1&
#12614617
0#
0%
#12630911
1#
1%
#12651165
0#
#12667227
1#
#12683201
0&
#12704820
0#
0%
#12719621
1#
1%
#12740530
1&
#12756748
0#
0%
#12777197
1#
1%
#12793405
0&
#12814444
0#
0%
#12831547
1#
#12852940
0#
#12869670
1#
1%
#12889943
0#
0%
#12905952
1#
1%
#12927875
1&
#12942600
0#
#12962728
1#
#13917997
0&
#13938155
0#
0%
#13954212
1#
1%
#13971061
1&
#13990002
0#
#14006483
1#
#14026404
0&
#14042735
0#
0%
#14064422
1#
1%
#14080737
1&
#14101068
0#
0%
#14117517
1#
1%
#14137119
0&
#14153518
0#
0%
#14174786
1#
#14191598
1%
1&
#14210723
0#
0%
#14228185
1#
1%
#14247363
0#
0%
#14265078
1#
1%
#14284283
0&
#14302081
0#
0%
#14322139
1#
1%
#14339235
0#
0%
#14360388
1#
#14376077
1%
1&
#14396532
0#
0%
#14412548
1#
1%
#14432179
0#
0%
#14448780
1#
1%
#14469111
0&
#14485758
0#
0%
#14505691
1#
1%
#14522863
0#
0%
#14543141
1#
#14560054
0#
#14576274
1#
1%
#14597124
0#
0%
#14613853
1#
1%
#14634340
0#
0%
#14651029
1#
#14672900
1%
1&
#14687397
0#
0%
#14707757
1#
1%
#14723862
0#
0%
#14743951
1#
1%
#14760089
0#
0%
#14782987
1#
1%
#14796370
0#
0%
#14816985
1#
1%
#14833261
0#
#14853868
1#
#14869980
0#
0%
#14890590
1#
1%
#14907031
0&
#14927362
0#
0%
#14945350
1#
1%
#14965315
1&
#14980737
0#
0%
#15002056
1#
1%
#15017671
0%
0&
#15039173
0#
#15055723
1#
1%
#15075584
1&
#15091302
0#
0%
#15111743
1#
1%
#15128007
0&
#15145456
0#
0%
#15166408
1#
1%
#15182559
1&
#15201704
0#
#15219454
1#
#15238627
0#
0%
#15256272
1#
1%
#15275781
0&
#15293265
0#
0%
#15313617
1#
#15330845
0#
#15351748
1#
1%
#15367680
1&
#15387385
0#
0%
#15403817
1#
1%
#15423178
0#
0%
#15440038
1#
1%
#16388913
0&
#16408371
0#
0%
#16427891
1#
#16445324
0#
#16461403
1#
1%
#16481559
0#
0%
#16498514
1#
1%
#16518619
1&
#16535262
0#
0%
#16554813
1#
1%
#16570470
0#
0%
#16590637
1#
1%
#16606793
0#
#16627231
1#
#16643582
0#
0%
#16665144
1#
1%
#16680291
0&
#16696965
0#
0%
#16718648
1#
1%
#16734330
0#
0%
#16755604
1#
1%
#16772485
1&
#16792475
0#
#16809301
1#
#16828291
0#
0%
#16844778
1#
1%
#16864949
0&
#16881480
0#
0%
#16902917
1#
#16919073
0#
#16939896
1#
1%
#16956186
0#
0%
#16976279
1#
1%
#16992951
0#
0%
#17012704
1#
1%
#17029438
0#
0%
#17051611
1#
1%
#17067543
1&
#17087289
0#
#17104075
1#
#17123875
0#
0%
#17139752
1#
1%
#17159750
0#
0%
#17176597
1#
1%
#17196502
0#
0%
#17213124
1#
1%
#17233418
0#
0%
#17249782
1#
1%
#17270286
0#
#17286993
1#
#17303222
0&
#17323472
0#
0%
#17339807
1#
1%
#17360355
0#
0%
#17376696
1#
1%
#17397708
0#
0%
#17413903
1#
1%
#17435361
1&
#17450405
0#
#17472348
1#
#17487259
0#
0%
#17508583
1#
1%
#17524318
0#
0%
#17545774
1#
1%
#17560958
0#
#17582429
1#
#17597824
0&
#17619916
0#
0%
#17636057
1#
1%
#17656529
0#
0%
#17673498
1#
1%
#17693752
1&
#17710310
0#
0%
#17734686
1#
1%
#17746459
0#
#17766317
1#
#19332670
0%
0&
#19353121
0#
#19369661
1#
1%
#19389988
1&
#19405668
0#
0%
#19426628
1#
1%
#19442613
0#
#19463176
1#
#19479247
0&
#19498588
0#
0%
#19515923
1#
1%
#19535510
0#
0%
#19552947
1#
1%
#19574232
0#
0%
#19590554
1#
1%
#19611168
0#
0%
#19627870
1#
#19647996
1%
1&
#19663375
0#
0%
#19683349
1#
1%
#19699944
0&
#19719715
0#
0%
#19736843
1#
1%
#19757981
0#
0%
#19775203
1#
1%
#19795426
1&
#19813480
0#
#19834026
1#
#19847753
0&
#19863372
0#
0%
#19883850
1#
1%
#19900871
0#
0%
#19921461
1#
1%
#19937034
0#
0%
#19958016
1#
1%
#19974873
0#
0%
#19996283
1#
#20012951
0#
#20033056
1#
1%
#20048958
1&
#20068839
0#
0%
#20085462
1#
1%
#20105211
0#
#20121492
1#
#20143033
0#
0%
#20158702
1#
1%
#20178455
0#
0%
#20194767
1#
1%
#20215394
0#
0%
#20232834
1#
1%
#20253068
0#
0%
#20269312
1#
1%
#20288939
0%
0&
#20306380
0#
#20327309
1#
1%
#20343553
1&
#20362861
0#
0%
#20379103
1#
1%
#20395502
0#
0%
#20417134
1#
1%
#20432353
0&
#20453388
0#
0%
#20470420
1#
#20490839
0#
#20507347
1#
1%
#20528487
0#
0%
#20544643
1#
1%
#20564770
0#
0%
#20582615
1#
1%
#20602285
1&
#20618171
0#
0%
#20638763
1#
1%
#20654582
0%
0&
#20674292
0#
#20692758
1#
1%
#20712291
0#
0%
#20728626
1#
1%
#20748933
1&
#20767653
0#
0%
#20786110
1#
1%
#22415207
0&
#22436460
0#
0%
#22452030
1#
1%
#22468202
0#
0%
#22488403
1#
#22505282
0#
#22526629
1#
1%
#22542799
1&
#22563901
0#
0%
#22580260
1#
1%
#22599362
0%
0&
#22615830
0#
#22637049
1#
1%
#22653176
0#
0%
#22673671
1#
1%
#22690275
0#
0%
#22712042
1#
1%
#22728084
1&
#22747724
0#
0%
#22767077
1#
1%
#22783748
0%
0&
#22799655
0#
#22821331
1#
1%
#22837640
1&
#22857053
0#
0%
#22874913
1#
1%
#22893926
0#
0%
#22911549
1#
1%
#22930842
0&
#22949192
0#
0%
#22969215
1#
#22985026
0#
#23001903
1#
1%
#23022259
0#
0%
#23039431
1#
1%
#23060120
0#
0%
#23075767
1#
1%
#23097512
0#
0%
#23113254
1#
1%
#23133571
1&
#23149023
0#
#23169663
1#
#23186073
0#
0%
#23207596
1#
1%
#23222202
0#
0%
#23243307
1#
1%
#23259151
0#
#23279258
1#
#23295328
0#
0%
#23315929
1#
1%
#23332220
0#
0%
#23353000
1#
1%
#23369057
0&
#23389776
0#
0%
#23406295
1#
1%
#23427157
0#
0%
#23443282
1#
#23465269
0#
#23482106
1#
1%
#23502216
1&
#23517632
0#
0%
#23540060
1#
1%
#23553572
0&
#23577855
0#
0%
#23591406
1#
1%
#23607443
0#
0%
#23628202
1#
#23646176
0#
#23666174
1#
1%
#23682610
1&
#23702051
0#
0%
#23718557
1#
1%
#23738419
0&
#23754608
0#
0%
#23775479
1#
1%
#23792036
1&
#23811856
0#
#23828150
1#
#23848657
0#
0%
#23864906
1#
1%
#25296016
0&
#25316661
0#
0%
#25333465
1#
#25353148
1%
1&
#25369195
0#
0%
#25392684
1#
1%
#25406049
0&
#25425788
0#
0%
#25441859
1#
1%
#25463441
1&
#25478447
0#
0%
#25499606
1#
1%
#25515474
0#
#25536553
1#
#25552393
0&
#25573892
0#
0%
#25590484
1#
1%
#25610843
0#
0%
#25627120
1#
1%
#25642671
1&
#25663916
0#
0%
#25680000
1#
1%
#25700761
0%
0&
#25716225
0#
#25736907
1#
1%
#25753876
1&
#25774414
0#
0%
#25790930
1#
1%
#25810876
0#
0%
#25829274
1#
1%
#25847455
0&
#25863473
0#
0%
#25885359
1#
#25901685
0#
#25922251
1#
1%
#25938443
0#
0%
#25958803
1#
1%
#25975240
0#
0%
#25996092
1#
#26012392
0#
#26032586
1#
1%
#26048723
1&
#26068248
0#
0%
#26085930
1#
1%
#26105091
0#
0%
#26122486
1#
1%
#26142097
0#
0%
#26160467
1#
1%
#26179010
0#
#26196461
1#
#26211582
0#
0%
#26233275
1#
1%
#26248580
0#
0%
#26269752
1#
1%
#26285298
0&
#26306678
0#
0%
#26323712
1#
1%
#26344833
1&
#26360911
0#
#26381802
1#
#26397591
0&
#26416693
0#
0%
#26432838
1#
1%
#26453607
1&
#26469911
0#
0%
#26490461
1#
1%
#26507091
0#
0%
#26528133
1#
1%
#26543419
0%
0&
#26564849
0#
#26581699
1#
1%
#26602264
0#
0%
#26619415
1#
1%
#26640117
1&
#26655337
0#
#26676296
1#
#26692331
0&
#26711989
0#
0%
#26727923
1#
1%
#26749362
1&
#26764797
0#
0%
#26786278
1#
1%
#26801591
0#
0%
#26818010
1#
1%
