VCDanalyse/VCDanalyse/test_clavier.vcd
$date
   Date text. For example: November 11, 2009.
$end
$version
   VCD generator tool version info text.
$end
$comment
   Any comment text.
$end
$timescale 1us $end
$scope module logic $end
$var wire 1 $ clock $end
$var wire 1 % data1 $end
$var wire 1 & data2 $end  
$upscope $end
$enddefinitions $end
$dumpvars
1$
0%
0&
$end
#0
1$
#1
0$
0%
0&
#2
1$
#3
0$
1%
1&
#4
1$
#5
0$
1%
0&
#6
1$
#7
0$
0%
0&
#8
1$
#9
0$
0%
1&
#10
1$
#11
0$
0%
1&
#12
1$
#13
0$
0%
1&
#14
1$
#15
0$
1%
1&
