VCDanalyse/VCDanalyse2/bin/Release/clavier.vcd
$comment
Generation des valeurs sortant du clavier
$end
$timescale 1us$end
$scope module logic$end
$var wire 1 # PB0 $end
$var wire 1 % PB1 $end
$var wire 1 & PB2 $end
$var wire 1 * PB3 $end
$var wire 1 ( PB4 $end
$var wire 1 ) PB5 $end
$var wire 1 [ PB6 $end
$var wire 1 ] PB7 $end
$upscope $end
$enddefinitions $end
$dumpvars
x#
x%
x&
x*
x(
x)
x[
x]
$end
#0
1#
0%
0&
0*
0(
0)
0[
0]
#3372
0#
#7073
1#
#13204
1%
#20720
0#
#26827
1#
#33380
0%
#39024
0#
#45944
1#
#52475
1%
#58856
0#
#66196
1#
#72415
0%
#78551
0#
#85413
1#
#91957
1%
#96683
0#
#102899
1#
#107037
0%
#111107
0#
#115764
1#
#122141
0#
#126333
1#
#130623
0#
#135026
1#
#139154
0#
#143534
1#
#147419
1%
#154560
0#
#158747
1#
#180450
0%
#186132
0#
#191725
1#
#195573
0#
#200064
1#
#205214
0#
#210475
1#
#215828
0#
#220657
1#
#225389
0#
#229546
1#
#234239
1%
#238148
0#
#242047
1#
#248792
0#
#253320
1#
#257631
0#
#262777
1#
#267941
0#
#272399
1#
#276384
0#
#280223
1#
#284070
0#
#286916
1#
#290417
0%
#293672
0#
#295927
1#
#299007
1%
#300403
0#
#301526
1#
#302882
0%
#303981
0#
#305073
1#
#306527
1%
#307643
0#
#308734
1#
#309829
0%
#311419
0#
#312879
1#
#314655
1%
#315531
0#
#316902
1#
#317990
0%
#318865
0#
#319954
1#
#321055
0#
#321894
1#
#322979
0#
#324076
1#
#324921
0#
#326080
1#
#327093
1%
#327928
0#
#328832
1#
#761225
0%
#763756
0#
#766274
1#
#768796
1%
#771246
0#
#773730
1#
#776225
0%
#778845
0#
#781447
1#
#783258
1%
#784988
0#
#786824
1#
#788555
0#
#789800
1#
#791656
0#
#793346
1#
#794813
0%
#795994
0#
#797319
1#
#798917
0#
#800275
1#
#802086
0#
#803961
1#
#805563
1%
#807047
0#
#808276
1#
#809787
0#
#811530
1#
#891168
0%
#895050
0#
#895850
1#
#896626
0#
#899245
1#
#900047
0#
#900838
1#
#901618
0#
#903155
1#
#903920
0#
#904688
1#
#905499
1%
#907316
0#
#908137
1#
#908993
0#
#911412
1#
#912179
0#
#913216
1#
#914312
0#
#915597
1#
#916470
0#
#917272
1#
#919543
0#
#920309
1#
#921188
0%
#922146
0#
#923682
1#
#924443
1%
#925194
0#
#926194
1#
#927901
0%
#928933
0#
#929824
1#
#931948
1%
#932790
0#
#933682
1#
#934497
0#
#935952
1#
#936719
0#
#937663
1#
#940125
0%
#940914
0#
#941804
1#
#942697
0#
#944116
1#
#945060
0#
#945990
1#
#948359
1%
#949177
0#
#950296
1#
#951325
0#
#952484
1#
#1382490
0%
#1383317
0#
#1386519
1#
#1387336
0#
#1388136
1#
#1388936
1%
#1390613
0#
#1391483
1#
#1392296
0%
#1394721
0#
#1395536
1#
#1396446
0#
#1397479
1#
#1398740
1%
#1399560
0#
#1400321
1#
#1401195
0%
#1402902
0#
#1403717
1#
#1404530
0#
#1407007
1#
#1407819
0#
#1408720
1#
#1409697
1%
#1411013
0#
#1411763
1#
#1412455
0#
#1415114
1#
#1796139
0%
#1796934
0#
#1800173
1#
#1800989
0#
#1801932
1#
#1802786
0#
#1804294
1#
#1805104
1%
#1805908
0#
#1808394
1#
#1809200
0%
#1810138
0#
#1811057
1#
#1812475
0#
#1813452
1#
#1814346
1%
#1816517
0#
#1817295
1#
#1818059
0%
#1818873
0#
#1820612
1#
#1821537
0#
#1822452
1#
#1824764
1%
#1825554
0#
#1826316
1#
#1827172
0#
#1828811
1#
#1931445
0%
#1932282
0#
#1935361
1#
#1936175
0#
#1937013
1#
#1938031
0#
#1939457
1#
#1940297
0#
#1941241
1#
#1942049
0#
#1943503
1#
#1944396
1%
#1945170
0#
#1947815
1#
#1948805
0#
#1949627
1#
#1950517
0#
#1951710
1#
#1952544
0#
#1953330
1#
#1955985
0#
#1957020
1#
#1957951
0#
#1958712
1#
#1959854
0%
#1960632
0#
#1961379
1#
#1962234
0#
#1964054
1#
#1964931
0#
#1965999
1#
#1968141
1%
#1968963
0#
#1970088
1#
#1970902
0%
#1972222
0#
#1973041
1#
#1973846
0#
#1976317
1#
#1977210
1%
#1978195
0#
#1979009
1#
#1980430
0%
#1981423
0#
#1982490
1#
#1984562
0#
#1985479
1#
#1986268
1%
#1987182
0#
#1988539
1#
#1989347
0#
#1990231
1#
#2628194
0%
#2631803
0#
#2632890
1#
#2634193
1%
#2636155
0#
#2637282
1#
#2638292
0%
#2639245
0#
#2640163
1#
#2641086
1%
#2642017
0#
#2644059
1#
#2645160
0#
#2646243
1#
#2647416
0%
#2648690
0#
#2649691
1#
#2650676
1%
#2651734
0#
#2652691
1#
#2653643
0%
#2654500
0#
#2656306
1#
#2657459
0#
#2658501
1#
#2659300
1%
#2660221
0#
#2661069
1#
#2661955
0#
#2664759
1#
#2765220
0%
#2768881
0#
#2772245
1#
#2775953
0#
#2779017
1#
#2782065
0#
#2785756
1#
#2789372
0#
#2792911
1#
#2796148
0#
#2799603
1#
#2802961
1%
#2806462
0#
#2809158
1#
#2811343
0#
#2814348
1#
#2817902
0#
#2820467
1#
#2822640
0#
#2824882
1#
#2827037
0#
#2829504
1#
#2831910
0#
#2834107
1#
#2836262
0%
#2838414
0#
#2840780
1#
#2843787
1%
#2847313
0#
#2850921
1#
#2854379
0%
#2857941
0#
#2861287
1#
#2864811
1%
#2868203
0#
#2871192
1#
#2873453
0#
#2875893
1#
#2878425
0%
#2881108
0#
#2883797
1#
#2886382
1%
#2888834
0#
#2891103
1#
#2893338
0%
#2895499
0#
#2898123
1#
#2901770
0#
#2905359
1#
#2908652
1%
#2912109
0#
#2915761
1#
#2920167
0#
#2923735
1#
#3084739
0%
#3087263
0#
#3089442
1#
#3091608
0#
#3094122
1#
#3096679
0#
#3099372
1#
#3101950
0#
#3104212
1#
#3106419
0#
#3108584
1#
#3110950
1%
#3113133
0#
#3115734
1#
#3119174
0#
#3122850
1#
#3126508
0#
#3130020
1#
#3133177
0#
#3136526
1#
#3139867
0#
#3143170
1#
#3146902
0#
#3150434
1#
#3153993
0%
#3156857
0#
#3159600
1#
#3162086
0#
#3165179
1#
#3167769
1%
#3170200
0#
#3173185
1#
#3177247
0%
#3180776
0#
#3184034
1#
#3187350
0#
#3190292
1#
#3192722
1%
#3195418
0#
#3198718
1#
#3201994
0%
#3206050
0#
#3208599
1#
#3210756
0#
#3212999
1#
#3215813
0#
#3218352
1#
#3220783
1%
#3223996
0#
#3225353
1#
#3226681
0#
#3228006
1#
#3584423
0%
#3587738
0#
#3591141
1#
#3594461
0#
#3597633
1#
#3600806
0#
#3604244
1#
#3607819
1%
#3610519
0#
#3612703
1#
#3615540
0#
#3617710
1#
#3620029
0%
#3622558
0#
#3624872
1#
#3627089
1%
#3629325
0#
#3632926
1#
#3635739
0%
#3639599
0#
#3641943
1#
#3644283
0#
#3646558
1#
#3649311
0#
#3652324
1#
#3655703
1%
#3659137
0#
#3662499
1#
#3718204
0%
#3720634
0#
#3724236
1#
#3726894
0#
#3729287
1#
#3731788
0#
#3734509
1#
#3738374
0#
#3741245
1#
#3743450
0#
#3745891
1#
#3748992
1%
#3751419
0#
#3753674
1#
#3756060
0#
#3758556
1#
#3761296
0#
#3764257
1#
#3766867
0#
#3769273
1#
#3771711
0#
#3776490
1#
#3779832
0#
#3784038
1#
#3787405
0%
#3790772
0#
#3793207
1#
#3795301
0#
#3797363
1#
#3799289
0#
#3801379
1#
#3803540
1%
#3805025
0#
#3806366
1#
#3807894
0#
#3809259
1#
#3810596
0%
#3812087
0#
#3813509
1#
#3815271
1%
#3817514
0#
#3819050
1#
#3820463
0%
#3821806
0#
#3823186
1#
#3824535
0#
#3825865
1#
#3827193
0#
#3828520
1#
#3829881
1%
#3831743
0#
#3833267
1#
#4309287
0%
#4313038
0#
#4316361
1#
#4319249
1%
#4321442
0#
#4323692
1#
#4326029
0%
#4328343
0#
#4330739
1#
#4333944
1%
#4337410
0#
#4340072
1#
#4342498
0%
#4344905
0#
#4347484
1#
#4350467
1%
#4352917
0#
#4355451
1#
#4357186
0#
#4358870
1#
#4360591
0%
#4363721
0#
#4366037
1#
#4368389
0#
#4370627
1#
#4372748
1%
#4374984
0#
#4377244
1#
#4379503
0#
#4381629
1#
#4414201
0%
#4417033
0#
#4420857
1#
#4424060
0#
#4427258
1#
#4429844
0#
#4432539
1#
#4435002
0#
#4437866
1#
#4440031
0#
#4442195
1#
#4444361
1%
#4446536
0#
#4449758
1#
#4452281
0#
#4456305
1#
#4459609
0#
#4462649
1#
#4466123
0#
#4468871
1#
#4471284
0#
#4473677
1#
#4476133
0#
#4478532
1#
#4480685
0%
#4483058
0#
#4484890
1#
#4486875
1%
#4488861
0#
#4490221
1#
#4491632
0%
#4492898
0#
#4494202
1#
#4495847
1%
#4497430
0#
#4499522
1#
#4501256
0%
#4503917
0#
#4505256
1#
#4506530
1%
#4507874
0#
#4509161
1#
#4510475
0#
#4511871
1#
#4512926
0%
#4515786
0#
#4516840
1#
#4517916
0#
#4518983
1#
#4520002
1%
#4521014
0#
#4522034
1#
#4523052
0#
#4524064
1#
